\BOOKMARK [1][-]{section.1}{Introduzione}{}% 1
\BOOKMARK [2][-]{subsection.1.1}{Cosa \350 Cocktailyzer}{section.1}% 2
\BOOKMARK [2][-]{subsection.1.2}{Obiettivi}{section.1}% 3
\BOOKMARK [1][-]{section.2}{Glossario}{}% 4
\BOOKMARK [1][-]{section.3}{Analisi e specifica dei requisiti}{}% 5
\BOOKMARK [2][-]{subsection.3.1}{Requisiti sul sistema di erogazione}{section.3}% 6
\BOOKMARK [3][-]{subsubsection.3.1.1}{Velocit\340 di erogazione}{subsection.3.1}% 7
\BOOKMARK [3][-]{subsubsection.3.1.2}{Precisione della miscela}{subsection.3.1}% 8
\BOOKMARK [2][-]{subsection.3.2}{Requisiti sulle ricette}{section.3}% 9
\BOOKMARK [2][-]{subsection.3.3}{Requisiti di usabilit\340}{section.3}% 10
\BOOKMARK [2][-]{subsection.3.4}{Area di gestione}{section.3}% 11
\BOOKMARK [2][-]{subsection.3.5}{Requisiti di sicurezza}{section.3}% 12
\BOOKMARK [3][-]{subsubsection.3.5.1}{Apertura dei serbatoi}{subsection.3.5}% 13
\BOOKMARK [1][-]{section.4}{Elettronica}{}% 14
\BOOKMARK [2][-]{subsection.4.1}{Scelta del controllore}{section.4}% 15
\BOOKMARK [2][-]{subsection.4.2}{Alimentazione}{section.4}% 16
\BOOKMARK [2][-]{subsection.4.3}{Circuiti di azionamento degli attuatori}{section.4}% 17
\BOOKMARK [3][-]{subsubsection.4.3.1}{Elettrovalvole}{subsection.4.3}% 18
\BOOKMARK [1][-]{section.5}{Software}{}% 19
\BOOKMARK [2][-]{subsection.5.1}{Lato Server}{section.5}% 20
\BOOKMARK [3][-]{subsubsection.5.1.1}{Modulo components}{subsection.5.1}% 21
