\relax 
\providecommand\hyper@newdestlabel[2]{}
\providecommand\HyperFirstAtBeginDocument{\AtBeginDocument}
\HyperFirstAtBeginDocument{\ifx\hyper@anchor\@undefined
\global\let\oldcontentsline\contentsline
\gdef\contentsline#1#2#3#4{\oldcontentsline{#1}{#2}{#3}}
\global\let\oldnewlabel\newlabel
\gdef\newlabel#1#2{\newlabelxx{#1}#2}
\gdef\newlabelxx#1#2#3#4#5#6{\oldnewlabel{#1}{{#2}{#3}}}
\AtEndDocument{\ifx\hyper@anchor\@undefined
\let\contentsline\oldcontentsline
\let\newlabel\oldnewlabel
\fi}
\fi}
\global\let\hyper@last\relax 
\gdef\HyperFirstAtBeginDocument#1{#1}
\providecommand\HyField@AuxAddToFields[1]{}
\providecommand\HyField@AuxAddToCoFields[2]{}
\select@language{italian}
\@writefile{toc}{\select@language{italian}}
\@writefile{lof}{\select@language{italian}}
\@writefile{lot}{\select@language{italian}}
\select@language{italian}
\@writefile{toc}{\select@language{italian}}
\@writefile{lof}{\select@language{italian}}
\@writefile{lot}{\select@language{italian}}
\@writefile{toc}{\contentsline {section}{\numberline {1}Introduzione}{3}{section.1}}
\@writefile{toc}{\contentsline {subsection}{\numberline {1.1}Cosa \IeC {\`e} Cocktailyzer}{3}{subsection.1.1}}
\@writefile{toc}{\contentsline {subsection}{\numberline {1.2}Obiettivi}{3}{subsection.1.2}}
\newlabel{obj}{{1.2}{3}{Obiettivi}{subsection.1.2}{}}
\@writefile{toc}{\contentsline {section}{\numberline {2}Glossario}{5}{section.2}}
\@writefile{toc}{\contentsline {section}{\numberline {3}Analisi e specifica dei requisiti}{6}{section.3}}
\@writefile{toc}{\contentsline {subsection}{\numberline {3.1}Requisiti sul sistema di erogazione}{6}{subsection.3.1}}
\@writefile{toc}{\contentsline {subsubsection}{\numberline {3.1.1}Velocit\IeC {\`a} di erogazione}{6}{subsubsection.3.1.1}}
\@writefile{toc}{\contentsline {subsubsection}{\numberline {3.1.2}Precisione della miscela}{6}{subsubsection.3.1.2}}
\@writefile{toc}{\contentsline {subsection}{\numberline {3.2}Requisiti sulle ricette}{8}{subsection.3.2}}
\@writefile{toc}{\contentsline {subsection}{\numberline {3.3}Requisiti di usabilit\IeC {\`a}}{8}{subsection.3.3}}
\@writefile{toc}{\contentsline {subsection}{\numberline {3.4}Area di gestione}{8}{subsection.3.4}}
\@writefile{toc}{\contentsline {subsection}{\numberline {3.5}Requisiti di sicurezza}{9}{subsection.3.5}}
\@writefile{toc}{\contentsline {subsubsection}{\numberline {3.5.1}Apertura dei serbatoi}{9}{subsubsection.3.5.1}}
\@writefile{toc}{\contentsline {section}{\numberline {4}Elettronica}{10}{section.4}}
\@writefile{toc}{\contentsline {subsection}{\numberline {4.1}Scelta del controllore}{10}{subsection.4.1}}
\@writefile{lof}{\contentsline {figure}{\numberline {1}{\ignorespaces ArduinoUNO}}{10}{figure.1}}
\newlabel{fig:ardu_uno}{{1}{10}{\ardu UNO}{figure.1}{}}
\@writefile{lof}{\contentsline {figure}{\numberline {2}{\ignorespaces Raspberry Pi{} Zero}}{11}{figure.2}}
\newlabel{fig:rpi0}{{2}{11}{\raszero }{figure.2}{}}
\@writefile{toc}{\contentsline {subsection}{\numberline {4.2}Alimentazione}{12}{subsection.4.2}}
\@writefile{toc}{\contentsline {subsection}{\numberline {4.3}Circuiti di azionamento degli attuatori}{12}{subsection.4.3}}
\@writefile{lof}{\contentsline {figure}{\numberline {3}{\ignorespaces Circuito di azionamento degli attuatori}}{13}{figure.3}}
\newlabel{fig:circ_no_val}{{3}{13}{Circuito di azionamento degli attuatori}{figure.3}{}}
\@writefile{toc}{\contentsline {subsubsection}{\numberline {4.3.1}Elettrovalvole}{14}{subsubsection.4.3.1}}
\@writefile{lof}{\contentsline {figure}{\numberline {4}{\ignorespaces Circuito di azionamento degli attuatori}}{14}{figure.4}}
\@writefile{lof}{\contentsline {figure}{\numberline {5}{\ignorespaces Circuito di azionamento delle elettrovalvole}}{16}{figure.5}}
\newlabel{fig:circ_val_ev}{{5}{16}{Circuito di azionamento delle elettrovalvole}{figure.5}{}}
\@writefile{lof}{\contentsline {figure}{\numberline {6}{\ignorespaces Simulazione con $IN = 3.3V$}}{16}{figure.6}}
\newlabel{fig:circ_ev_sim1}{{6}{16}{Simulazione con $IN = 3.3V$}{figure.6}{}}
\@writefile{lof}{\contentsline {figure}{\numberline {7}{\ignorespaces Simulazione con $IN = 0V$}}{16}{figure.7}}
\newlabel{fig:circ_ev_sim2}{{7}{16}{Simulazione con $IN = 0V$}{figure.7}{}}
\@writefile{toc}{\contentsline {section}{\numberline {5}Software}{17}{section.5}}
\@writefile{toc}{\contentsline {subsection}{\numberline {5.1}Lato Server}{17}{subsection.5.1}}
\@writefile{toc}{\contentsline {subsubsection}{\numberline {5.1.1}Modulo \textit  {components}}{18}{subsubsection.5.1.1}}
\@writefile{lof}{\contentsline {figure}{\numberline {8}{\ignorespaces UML delle classi del modulo \textit  {components}}}{18}{figure.8}}
\newlabel{fig:uml_components}{{8}{18}{UML delle classi del modulo \modname {components}}{figure.8}{}}
