<Qucs Schematic 0.0.19>
<Properties>
  <View=-117,-72,1192,1200,1.20788,4,57>
  <Grid=10,10,1>
  <DataSet=controllo_elettrovalvola.dat>
  <DataDisplay=controllo_elettrovalvola.dpl>
  <OpenDisplay=1>
  <Script=controllo_elettrovalvola.m>
  <RunScript=0>
  <showFrame=0>
  <FrameText0=Titolo>
  <FrameText1=Disegnato da:>
  <FrameText2=Data:>
  <FrameText3=Versione:>
</Properties>
<Symbol>
</Symbol>
<Components>
  <GND * 1 300 550 0 0 0 0>
  <.DC DC1 1 270 700 0 53 0 0 "26.85" 0 "0.001" 0 "1 pA" 0 "1 uV" 0 "no" 0 "1500" 0 "no" 0 "none" 0 "CroutLU" 0>
  <Vdc IN 1 490 460 18 -26 0 1 "3.3V" 1>
  <Vdc CorrenteUtilizzatore 1 40 370 18 -26 0 1 "0V" 1>
  <Vdc VBGrande 1 210 210 -26 -74 0 2 "0V" 1>
  <_BJT T1_BD140 1 40 210 -117 -26 0 2 "pnp" 1 "1e-5" 1 "1" 0 "1" 0 "0" 0 "0" 0 "0" 0 "0" 0 "0" 0 "1.5" 0 "0" 0 "2" 0 "40" 1 "1" 0 "0" 0 "0" 0 "0" 0 "0" 0 "0" 0 "0" 0 "0.75" 0 "0.33" 0 "0" 0 "0.75" 0 "0.33" 0 "1.0" 0 "0" 0 "0.75" 0 "0" 0 "0.5" 0 "0.0" 0 "0.0" 0 "0.0" 0 "0.0" 0 "0.0" 0 "26.85" 0 "0.0" 0 "1.0" 0 "1.0" 0 "0.0" 0 "1.0" 0 "1.0" 0 "0.0" 0 "0.0" 0 "3.0" 0 "1.11" 0 "26.85" 0 "1.0" 0>
  <_BJT T2_BC847 1 370 390 -117 -26 1 2 "npn" 1 "1e-16" 1 "1" 0 "1" 0 "0" 0 "0" 0 "0" 0 "0" 0 "0" 0 "1.5" 0 "0" 0 "2" 0 "100" 1 "1" 0 "0" 0 "0" 0 "0" 0 "0" 0 "0" 0 "0" 0 "0.75" 0 "0.33" 0 "0" 0 "0.75" 0 "0.33" 0 "1.0" 0 "0" 0 "0.75" 0 "0" 0 "0.5" 0 "0.0" 0 "0.0" 0 "0.0" 0 "0.0" 0 "0.0" 0 "26.85" 0 "0.0" 0 "1.0" 0 "1.0" 0 "0.0" 0 "1.0" 0 "1.0" 0 "0.0" 0 "0.0" 0 "3.0" 0 "1.11" 0 "26.85" 0 "1.0" 0>
  <Vdc Alimentazione 1 800 320 18 -26 0 1 "5V" 1>
  <R R1 1 370 140 15 -26 0 1 "10000 Ohm" 0 "26.85" 0 "0.0" 0 "0.0" 0 "26.85" 0 "US" 0>
  <R R2 1 370 270 15 -26 0 1 "220 Ohm" 0 "26.85" 0 "0.0" 0 "0.0" 0 "26.85" 0 "US" 0>
  <R R3 1 460 390 -26 -44 0 2 "10000 Ohm" 0 "26.85" 0 "0.0" 0 "0.0" 0 "26.85" 0 "US" 0>
  <R U 1 40 270 15 -26 0 1 "8.33 Ohm" 0 "26.85" 0 "0.0" 0 "0.0" 0 "26.85" 0 "US" 0>
</Components>
<Wires>
  <370 170 370 210 "" 0 0 0 "">
  <370 60 370 110 "" 0 0 0 "">
  <370 420 370 550 "" 0 0 0 "">
  <300 550 370 550 "" 0 0 0 "">
  <370 60 800 60 "" 0 0 0 "">
  <370 550 490 550 "" 0 0 0 "">
  <40 550 300 550 "" 0 0 0 "">
  <40 60 370 60 "" 0 0 0 "">
  <40 60 40 180 "" 0 0 0 "">
  <40 300 40 340 "" 0 0 0 "">
  <40 400 40 550 "" 0 0 0 "">
  <240 210 370 210 "" 0 0 0 "">
  <70 210 180 210 "" 0 0 0 "">
  <400 390 430 390 "" 0 0 0 "">
  <490 390 490 430 "" 0 0 0 "">
  <490 490 490 550 "" 0 0 0 "">
  <370 210 370 240 "A" 400 180 3 "">
  <370 300 370 360 "" 0 0 0 "">
  <490 550 800 550 "" 0 0 0 "">
  <800 350 800 550 "" 0 0 0 "">
  <800 60 800 290 "" 0 0 0 "">
  <40 240 40 240 "Utilizzatore" 120 220 0 "">
  <370 360 370 360 "B" 400 330 0 "">
</Wires>
<Diagrams>
</Diagrams>
<Paintings>
</Paintings>
