<?xml version="1.0" encoding="UTF-8" standalone="no"?>
<!-- Created with Inkscape (http://www.inkscape.org/) -->

<svg
   xmlns:dc="http://purl.org/dc/elements/1.1/"
   xmlns:cc="http://creativecommons.org/ns#"
   xmlns:rdf="http://www.w3.org/1999/02/22-rdf-syntax-ns#"
   xmlns:svg="http://www.w3.org/2000/svg"
   xmlns="http://www.w3.org/2000/svg"
   xmlns:xlink="http://www.w3.org/1999/xlink"
   xmlns:sodipodi="http://sodipodi.sourceforge.net/DTD/sodipodi-0.dtd"
   xmlns:inkscape="http://www.inkscape.org/namespaces/inkscape"
   width="500"
   height="500"
   viewBox="0 0 500.00001 500.00001"
   id="svg2"
   version="1.1"
   inkscape:version="0.91 r13725"
   sodipodi:docname="smartail_bluecollar.svg"
   inkscape:export-filename="C:\Users\Davide\Documents\Cocktailizer_DOC\images\smartail.png"
   inkscape:export-xdpi="108.72752"
   inkscape:export-ydpi="108.72752">
  <defs
     id="defs4">
    <linearGradient
       inkscape:collect="always"
       id="linearGradient4645">
      <stop
         style="stop-color:#102378;stop-opacity:1;"
         offset="0"
         id="stop4647" />
      <stop
         style="stop-color:#4a5cad;stop-opacity:1"
         offset="1"
         id="stop4649" />
    </linearGradient>
    <linearGradient
       id="linearGradient4603-9"
       inkscape:collect="always">
      <stop
         id="stop4631"
         offset="0"
         style="stop-color:#ffa300;stop-opacity:1" />
      <stop
         id="stop4633"
         offset="1"
         style="stop-color:#ffdb00;stop-opacity:1" />
    </linearGradient>
    <linearGradient
       inkscape:collect="always"
       id="linearGradient4603">
      <stop
         style="stop-color:#ffc300;stop-opacity:1"
         offset="0"
         id="stop4605" />
      <stop
         style="stop-color:#fff900;stop-opacity:1"
         offset="1"
         id="stop4607" />
    </linearGradient>
    <linearGradient
       inkscape:collect="always"
       id="linearGradient4405">
      <stop
         style="stop-color:#202020;stop-opacity:1"
         offset="0"
         id="stop4407" />
      <stop
         style="stop-color:#bdbdbd;stop-opacity:1"
         offset="1"
         id="stop4409" />
    </linearGradient>
    <linearGradient
       inkscape:collect="always"
       id="linearGradient4767">
      <stop
         style="stop-color:#000000;stop-opacity:1;"
         offset="0"
         id="stop4769" />
      <stop
         style="stop-color:#5f5f5f;stop-opacity:1"
         offset="1"
         id="stop4771" />
    </linearGradient>
    <linearGradient
       id="Orange"
       inkscape:collect="always">
      <stop
         id="stop4268"
         offset="0"
         style="stop-color:#ff9012;stop-opacity:1" />
      <stop
         id="stop4270"
         offset="1"
         style="stop-color:#ff8200;stop-opacity:0.76078433" />
    </linearGradient>
    <linearGradient
       inkscape:collect="always"
       id="linearGradient4187">
      <stop
         style="stop-color:#00fff7;stop-opacity:0.3319838"
         offset="0"
         id="stop4189" />
      <stop
         style="stop-color:#b6fff4;stop-opacity:0.26274511"
         offset="1"
         id="stop4191" />
    </linearGradient>
    <linearGradient
       inkscape:collect="always"
       xlink:href="#linearGradient4187"
       id="linearGradient4193"
       x1="258.24127"
       y1="580.62207"
       x2="527.15326"
       y2="580.62207"
       gradientUnits="userSpaceOnUse"
       gradientTransform="matrix(1.4869616,0,0,1.4602544,-394.10821,-16.237927)" />
    <linearGradient
       inkscape:collect="always"
       xlink:href="#Orange"
       id="linearGradient4193-9"
       x1="258.24127"
       y1="580.62207"
       x2="527.15326"
       y2="580.62207"
       gradientUnits="userSpaceOnUse"
       gradientTransform="matrix(1.4869616,0,0,1.4869616,-394.18748,-48.193457)" />
    <linearGradient
       inkscape:collect="always"
       xlink:href="#linearGradient4767"
       id="linearGradient4773"
       x1="612.15247"
       y1="624.56262"
       x2="629.32507"
       y2="624.56262"
       gradientUnits="userSpaceOnUse" />
    <linearGradient
       inkscape:collect="always"
       xlink:href="#linearGradient4187"
       id="linearGradient4193-3"
       x1="258.24127"
       y1="580.62207"
       x2="527.15326"
       y2="580.62207"
       gradientUnits="userSpaceOnUse"
       gradientTransform="matrix(1.4869616,0,0,1.4869616,-392.98235,-36.829213)" />
    <linearGradient
       inkscape:collect="always"
       xlink:href="#linearGradient4405"
       id="linearGradient4411"
       x1="-665.22876"
       y1="652.78125"
       x2="-490.06601"
       y2="559.92413"
       gradientUnits="userSpaceOnUse" />
    <linearGradient
       inkscape:collect="always"
       xlink:href="#linearGradient4405"
       id="linearGradient4415"
       gradientUnits="userSpaceOnUse"
       x1="-593.6673"
       y1="531.46619"
       x2="-494.27969"
       y2="331.64764"
       gradientTransform="matrix(0.6710979,-0.41941957,0.41941957,0.6710979,318.93426,114.42145)" />
    <linearGradient
       inkscape:collect="always"
       xlink:href="#linearGradient4603"
       id="linearGradient4609"
       x1="384.06625"
       y1="445.70395"
       x2="536.28748"
       y2="376.00342"
       gradientUnits="userSpaceOnUse"
       gradientTransform="matrix(-1.1044367,0,0,1.1044367,821.56455,558.28472)" />
    <linearGradient
       inkscape:collect="always"
       xlink:href="#linearGradient4603-9"
       id="linearGradient4627"
       x1="391.68604"
       y1="934.78009"
       x2="253.59274"
       y2="957.00342"
       gradientUnits="userSpaceOnUse"
       gradientTransform="translate(-2,8)" />
    <linearGradient
       inkscape:collect="always"
       xlink:href="#linearGradient4603-9"
       id="linearGradient4643"
       x1="393.93716"
       y1="976.62762"
       x2="269.76675"
       y2="986.72913"
       gradientUnits="userSpaceOnUse"
       gradientTransform="translate(-2,8)" />
    <linearGradient
       inkscape:collect="always"
       xlink:href="#linearGradient4645"
       id="linearGradient4651"
       x1="9.681591"
       y1="889.60229"
       x2="367.93159"
       y2="889.60229"
       gradientUnits="userSpaceOnUse" />
  </defs>
  <sodipodi:namedview
     id="base"
     pagecolor="#ffffff"
     bordercolor="#666666"
     borderopacity="1.0"
     inkscape:pageopacity="0.0"
     inkscape:pageshadow="2"
     inkscape:zoom="0.98994949"
     inkscape:cx="391.49792"
     inkscape:cy="243.68561"
     inkscape:document-units="px"
     inkscape:current-layer="layer1"
     showgrid="false"
     inkscape:object-nodes="true"
     showguides="false"
     inkscape:snap-global="false"
     inkscape:snap-smooth-nodes="false"
     inkscape:snap-nodes="true"
     inkscape:snap-others="false"
     inkscape:window-width="1347"
     inkscape:window-height="937"
     inkscape:window-x="1272"
     inkscape:window-y="-8"
     inkscape:window-maximized="1"
     units="px" />
  <metadata
     id="metadata7">
    <rdf:RDF>
      <cc:Work
         rdf:about="">
        <dc:format>image/svg+xml</dc:format>
        <dc:type
           rdf:resource="http://purl.org/dc/dcmitype/StillImage" />
        <dc:title />
      </cc:Work>
    </rdf:RDF>
  </metadata>
  <g
     inkscape:label="Livello 1"
     inkscape:groupmode="layer"
     id="layer1"
     transform="translate(0,-552.36216)">
    <rect
       style="opacity:1;fill:#ff0000;fill-opacity:1;fill-rule:nonzero;stroke:#3c3c3c;stroke-width:1.47599995;stroke-linecap:round;stroke-linejoin:round;stroke-miterlimit:4;stroke-dasharray:none;stroke-dashoffset:0;stroke-opacity:1"
       id="rect4630"
       width="528.30975"
       height="417.19299"
       x="1977.8787"
       y="436.16916" />
    <g
       id="g4571"
       transform="matrix(0.71693854,0,0,0.71693854,956.76521,136.32366)">
      <path
         style="opacity:1;fill:#817b7b;fill-opacity:1;fill-rule:nonzero;stroke:#3c3c3c;stroke-width:1.47599995;stroke-linecap:round;stroke-linejoin:round;stroke-miterlimit:4;stroke-dasharray:none;stroke-dashoffset:0;stroke-opacity:1"
         id="path4474"
         sodipodi:type="arc"
         sodipodi:cx="157.33125"
         sodipodi:cy="678.35321"
         sodipodi:rx="10.859139"
         sodipodi:ry="10.859139"
         sodipodi:start="2.7910607"
         sodipodi:end="2.7909386"
         sodipodi:open="true"
         d="m 147.13246,682.08221 a 10.859139,10.859139 0 0 1 6.46948,-13.92768 10.859139,10.859139 0 0 1 13.92788,6.46906 10.859139,10.859139 0 0 1 -6.46863,13.92808 10.859139,10.859139 0 0 1 -13.92828,-6.46821" />
      <path
         style="opacity:1;fill:#c5c5c5;fill-opacity:0.76113359;fill-rule:nonzero;stroke:none;stroke-width:0.5;stroke-linecap:round;stroke-linejoin:round;stroke-miterlimit:4;stroke-dasharray:1.5, 0.5;stroke-dashoffset:0;stroke-opacity:1"
         id="path4476"
         sodipodi:type="arc"
         sodipodi:cx="159.98291"
         sodipodi:cy="676.08032"
         sodipodi:rx="1.1364216"
         sodipodi:ry="1.1364216"
         sodipodi:start="2.7910607"
         sodipodi:end="2.7909386"
         sodipodi:open="true"
         d="m 158.91559,676.47057 a 1.1364216,1.1364216 0 0 1 0.67704,-1.45755 1.1364216,1.1364216 0 0 1 1.45757,0.67699 1.1364216,1.1364216 0 0 1 -0.67695,1.45759 1.1364216,1.1364216 0 0 1 -1.45761,-0.6769" />
      <path
         style="opacity:1;fill:#c5c5c5;fill-opacity:0.76113359;fill-rule:nonzero;stroke:none;stroke-width:0.5;stroke-linecap:round;stroke-linejoin:round;stroke-miterlimit:4;stroke-dasharray:1.5, 0.5;stroke-dashoffset:0;stroke-opacity:1"
         id="path4476-5"
         sodipodi:type="arc"
         sodipodi:cx="160.10918"
         sodipodi:cy="680.8786"
         sodipodi:rx="1.1364216"
         sodipodi:ry="1.1364216"
         sodipodi:start="2.7910607"
         sodipodi:end="2.7909386"
         sodipodi:open="true"
         d="m 159.04186,681.26885 a 1.1364216,1.1364216 0 0 1 0.67704,-1.45755 1.1364216,1.1364216 0 0 1 1.45757,0.67699 1.1364216,1.1364216 0 0 1 -0.67695,1.45759 1.1364216,1.1364216 0 0 1 -1.45761,-0.6769" />
      <path
         style="opacity:1;fill:#c5c5c5;fill-opacity:0.76113359;fill-rule:nonzero;stroke:none;stroke-width:0.5;stroke-linecap:round;stroke-linejoin:round;stroke-miterlimit:4;stroke-dasharray:1.5, 0.5;stroke-dashoffset:0;stroke-opacity:1"
         id="path4476-5-9"
         sodipodi:type="arc"
         sodipodi:cx="154.6796"
         sodipodi:cy="681.00482"
         sodipodi:rx="1.1364216"
         sodipodi:ry="1.1364216"
         sodipodi:start="2.7910607"
         sodipodi:end="2.7909386"
         sodipodi:open="true"
         d="m 153.61228,681.39507 a 1.1364216,1.1364216 0 0 1 0.67704,-1.45755 1.1364216,1.1364216 0 0 1 1.45757,0.67699 1.1364216,1.1364216 0 0 1 -0.67695,1.45759 1.1364216,1.1364216 0 0 1 -1.45761,-0.6769" />
      <path
         style="opacity:1;fill:#c5c5c5;fill-opacity:0.76113359;fill-rule:nonzero;stroke:none;stroke-width:0.5;stroke-linecap:round;stroke-linejoin:round;stroke-miterlimit:4;stroke-dasharray:1.5, 0.5;stroke-dashoffset:0;stroke-opacity:1"
         id="path4476-5-6"
         sodipodi:type="arc"
         sodipodi:cx="154.80588"
         sodipodi:cy="676.33295"
         sodipodi:rx="1.1364216"
         sodipodi:ry="1.1364216"
         sodipodi:start="2.7910607"
         sodipodi:end="2.7909386"
         sodipodi:open="true"
         d="m 153.73856,676.72319 a 1.1364216,1.1364216 0 0 1 0.67704,-1.45755 1.1364216,1.1364216 0 0 1 1.45757,0.677 1.1364216,1.1364216 0 0 1 -0.67695,1.45759 1.1364216,1.1364216 0 0 1 -1.45761,-0.67691" />
    </g>
    <g
       id="g4590"
       transform="matrix(0.71693854,0,0,0.71693854,942.95483,225.75189)">
      <path
         style="opacity:1;fill:#817b7b;fill-opacity:1;fill-rule:nonzero;stroke:#3c3c3c;stroke-width:1.47599995;stroke-linecap:round;stroke-linejoin:round;stroke-miterlimit:4;stroke-dasharray:none;stroke-dashoffset:0;stroke-opacity:1"
         id="path4592"
         sodipodi:type="arc"
         sodipodi:cx="157.33125"
         sodipodi:cy="678.35321"
         sodipodi:rx="10.859139"
         sodipodi:ry="10.859139"
         sodipodi:start="2.7910607"
         sodipodi:end="2.7909386"
         sodipodi:open="true"
         d="m 147.13246,682.08221 a 10.859139,10.859139 0 0 1 6.46948,-13.92768 10.859139,10.859139 0 0 1 13.92788,6.46906 10.859139,10.859139 0 0 1 -6.46863,13.92808 10.859139,10.859139 0 0 1 -13.92828,-6.46821" />
      <path
         style="opacity:1;fill:#c5c5c5;fill-opacity:0.76113359;fill-rule:nonzero;stroke:none;stroke-width:0.5;stroke-linecap:round;stroke-linejoin:round;stroke-miterlimit:4;stroke-dasharray:1.5, 0.5;stroke-dashoffset:0;stroke-opacity:1"
         id="path4594"
         sodipodi:type="arc"
         sodipodi:cx="159.98291"
         sodipodi:cy="676.08032"
         sodipodi:rx="1.1364216"
         sodipodi:ry="1.1364216"
         sodipodi:start="2.7910607"
         sodipodi:end="2.7909386"
         sodipodi:open="true"
         d="m 158.91559,676.47057 a 1.1364216,1.1364216 0 0 1 0.67704,-1.45755 1.1364216,1.1364216 0 0 1 1.45757,0.67699 1.1364216,1.1364216 0 0 1 -0.67695,1.45759 1.1364216,1.1364216 0 0 1 -1.45761,-0.6769" />
      <path
         style="opacity:1;fill:#c5c5c5;fill-opacity:0.76113359;fill-rule:nonzero;stroke:none;stroke-width:0.5;stroke-linecap:round;stroke-linejoin:round;stroke-miterlimit:4;stroke-dasharray:1.5, 0.5;stroke-dashoffset:0;stroke-opacity:1"
         id="path4596"
         sodipodi:type="arc"
         sodipodi:cx="160.10918"
         sodipodi:cy="680.8786"
         sodipodi:rx="1.1364216"
         sodipodi:ry="1.1364216"
         sodipodi:start="2.7910607"
         sodipodi:end="2.7909386"
         sodipodi:open="true"
         d="m 159.04186,681.26885 a 1.1364216,1.1364216 0 0 1 0.67704,-1.45755 1.1364216,1.1364216 0 0 1 1.45757,0.67699 1.1364216,1.1364216 0 0 1 -0.67695,1.45759 1.1364216,1.1364216 0 0 1 -1.45761,-0.6769" />
      <path
         style="opacity:1;fill:#c5c5c5;fill-opacity:0.76113359;fill-rule:nonzero;stroke:none;stroke-width:0.5;stroke-linecap:round;stroke-linejoin:round;stroke-miterlimit:4;stroke-dasharray:1.5, 0.5;stroke-dashoffset:0;stroke-opacity:1"
         id="path4598"
         sodipodi:type="arc"
         sodipodi:cx="154.6796"
         sodipodi:cy="681.00482"
         sodipodi:rx="1.1364216"
         sodipodi:ry="1.1364216"
         sodipodi:start="2.7910607"
         sodipodi:end="2.7909386"
         sodipodi:open="true"
         d="m 153.61228,681.39507 a 1.1364216,1.1364216 0 0 1 0.67704,-1.45755 1.1364216,1.1364216 0 0 1 1.45757,0.67699 1.1364216,1.1364216 0 0 1 -0.67695,1.45759 1.1364216,1.1364216 0 0 1 -1.45761,-0.6769" />
      <path
         style="opacity:1;fill:#c5c5c5;fill-opacity:0.76113359;fill-rule:nonzero;stroke:none;stroke-width:0.5;stroke-linecap:round;stroke-linejoin:round;stroke-miterlimit:4;stroke-dasharray:1.5, 0.5;stroke-dashoffset:0;stroke-opacity:1"
         id="path4600"
         sodipodi:type="arc"
         sodipodi:cx="1390.2177"
         sodipodi:cy="580.68817"
         sodipodi:rx="1.1364216"
         sodipodi:ry="1.1364216"
         sodipodi:start="2.7910607"
         sodipodi:end="2.7909386"
         sodipodi:open="true"
         d="m 1389.1503,581.07842 a 1.1364216,1.1364216 0 0 1 0.6771,-1.45755 1.1364216,1.1364216 0 0 1 1.4575,0.67699 1.1364216,1.1364216 0 0 1 -0.6769,1.45759 1.1364216,1.1364216 0 0 1 -1.4576,-0.6769" />
    </g>
    <g
       id="g4651"
       transform="translate(885.71429,-68.571429)">
      <path
         d="m 663.42936,616.12439 a 7.7853355,7.7853355 0 0 1 4.63822,-9.98529 7.7853355,7.7853355 0 0 1 9.98544,4.63792 7.7853355,7.7853355 0 0 1 -4.63761,9.98557 7.7853355,7.7853355 0 0 1 -9.98572,-4.63731"
         sodipodi:open="true"
         sodipodi:end="2.7909386"
         sodipodi:start="2.7910607"
         sodipodi:ry="7.7853355"
         sodipodi:rx="7.7853355"
         sodipodi:cy="613.45093"
         sodipodi:cx="670.74127"
         sodipodi:type="arc"
         id="path4636"
         style="opacity:1;fill:#a36f44;fill-opacity:1;fill-rule:nonzero;stroke:#6f2802;stroke-width:1.05820119;stroke-linecap:round;stroke-linejoin:round;stroke-miterlimit:4;stroke-dasharray:none;stroke-dashoffset:0;stroke-opacity:1" />
      <path
         d="m 671.87713,612.10113 a 0.81474441,0.81474441 0 0 1 0.4854,-1.04497 0.81474441,0.81474441 0 0 1 1.04499,0.48536 0.81474441,0.81474441 0 0 1 -0.48533,1.045 0.81474441,0.81474441 0 0 1 -1.04502,-0.4853"
         sodipodi:open="true"
         sodipodi:end="2.7909386"
         sodipodi:start="2.7910607"
         sodipodi:ry="0.81474441"
         sodipodi:rx="0.81474441"
         sodipodi:cy="611.82135"
         sodipodi:cx="672.64233"
         sodipodi:type="arc"
         id="path4638"
         style="opacity:1;fill:#b69b81;fill-opacity:0.76113359;fill-rule:nonzero;stroke:none;stroke-width:0.5;stroke-linecap:round;stroke-linejoin:round;stroke-miterlimit:4;stroke-dasharray:1.5, 0.5;stroke-dashoffset:0;stroke-opacity:1" />
      <path
         d="m 671.96771,615.54126 a 0.81474441,0.81474441 0 0 1 0.4854,-1.04498 0.81474441,0.81474441 0 0 1 1.04498,0.48537 0.81474441,0.81474441 0 0 1 -0.48533,1.045 0.81474441,0.81474441 0 0 1 -1.04502,-0.4853"
         sodipodi:open="true"
         sodipodi:end="2.7909386"
         sodipodi:start="2.7910607"
         sodipodi:ry="0.81474441"
         sodipodi:rx="0.81474441"
         sodipodi:cy="615.26147"
         sodipodi:cx="672.73291"
         sodipodi:type="arc"
         id="path4640"
         style="opacity:1;fill:#b69b81;fill-opacity:0.76113359;fill-rule:nonzero;stroke:none;stroke-width:0.5;stroke-linecap:round;stroke-linejoin:round;stroke-miterlimit:4;stroke-dasharray:1.5, 0.5;stroke-dashoffset:0;stroke-opacity:1" />
      <path
         d="m 668.07501,615.63171 a 0.81474441,0.81474441 0 0 1 0.4854,-1.04497 0.81474441,0.81474441 0 0 1 1.04498,0.48536 0.81474441,0.81474441 0 0 1 -0.48533,1.045 0.81474441,0.81474441 0 0 1 -1.04502,-0.4853"
         sodipodi:open="true"
         sodipodi:end="2.7909386"
         sodipodi:start="2.7910607"
         sodipodi:ry="0.81474441"
         sodipodi:rx="0.81474441"
         sodipodi:cy="615.35193"
         sodipodi:cx="668.84021"
         sodipodi:type="arc"
         id="path4642"
         style="opacity:1;fill:#b69b81;fill-opacity:0.76113359;fill-rule:nonzero;stroke:none;stroke-width:0.5;stroke-linecap:round;stroke-linejoin:round;stroke-miterlimit:4;stroke-dasharray:1.5, 0.5;stroke-dashoffset:0;stroke-opacity:1" />
      <path
         d="m 668.16553,612.28228 a 0.81474441,0.81474441 0 0 1 0.48539,-1.04497 0.81474441,0.81474441 0 0 1 1.04499,0.48536 0.81474441,0.81474441 0 0 1 -0.48533,1.04501 0.81474441,0.81474441 0 0 1 -1.04502,-0.4853"
         sodipodi:open="true"
         sodipodi:end="2.7909386"
         sodipodi:start="2.7910607"
         sodipodi:ry="0.81474441"
         sodipodi:rx="0.81474441"
         sodipodi:cy="612.0025"
         sodipodi:cx="668.93073"
         sodipodi:type="arc"
         id="path4644"
         style="opacity:1;fill:#b69b81;fill-opacity:0.76113359;fill-rule:nonzero;stroke:none;stroke-width:0.5;stroke-linecap:round;stroke-linejoin:round;stroke-miterlimit:4;stroke-dasharray:1.5, 0.5;stroke-dashoffset:0;stroke-opacity:1" />
    </g>
    <path
       style="opacity:1;fill:url(#linearGradient4193-3);fill-opacity:1;fill-rule:nonzero;stroke:none;stroke-width:23.95299911;stroke-linecap:round;stroke-linejoin:round;stroke-miterlimit:4;stroke-dasharray:none;stroke-dashoffset:0;stroke-opacity:0.78947371"
       d="m 6.566553,608.95066 c -15.228836,6.76001 -20.031737,14.26518 -18.344808,25.06516 L 53.68405,1029.058 c 1.35555,8.6675 8.82091,15.057 17.59378,15.0584 l 29.91639,0 179.49833,0 29.91639,0 c 8.77286,0 16.23823,-6.3909 17.59377,-15.0584 l 60.20511,-395.04218 c 1.68693,-10.79998 -3.11597,-21.30903 -9.33246,-26.56722 -6.2165,-5.25819 -53.76171,-18.99723 -102.88899,-22.53087 -49.12728,-3.53363 -128.13878,-3.41682 -177.99628,3.75514 -49.85749,7.17196 -76.3947,13.51778 -91.623537,20.27779 z"
       id="path4141-3"
       inkscape:connector-curvature="0"
       sodipodi:nodetypes="zcccccccczzzz"
       inkscape:export-xdpi="108.72752"
       inkscape:export-ydpi="108.72752" />
    <g
       id="g4777"
       transform="matrix(1.3515901,0.61988631,-0.61988631,1.3515901,-167.86557,-460.64099)"
       inkscape:export-xdpi="108.72752"
       inkscape:export-ydpi="108.72752">
      <rect
         y="473.5448"
         x="612.15247"
         height="302.03561"
         width="17.172594"
         id="rect4765"
         style="opacity:1;fill:url(#linearGradient4773);fill-opacity:1;fill-rule:nonzero;stroke:none;stroke-width:0.5;stroke-linecap:round;stroke-linejoin:round;stroke-miterlimit:4;stroke-dasharray:none;stroke-dashoffset:0;stroke-opacity:1" />
      <rect
         ry="2.2728431"
         y="478.59552"
         x="622.75909"
         height="325.2691"
         width="3.0304575"
         id="rect4775"
         style="opacity:1;fill:#ffffff;fill-opacity:0.69230772;fill-rule:nonzero;stroke:none;stroke-width:0.5;stroke-linecap:round;stroke-linejoin:round;stroke-miterlimit:4;stroke-dasharray:none;stroke-dashoffset:0;stroke-opacity:1" />
    </g>
    <g
       id="g4364"
       transform="matrix(0.69992843,-0.46686484,0.46686484,0.69992843,93.888627,141.67719)" />
    <path
       id="path4413"
       d="m 77.80604,482.2011 27.50475,44.00934 -27.932951,52.54264 -59.469684,2.08185 -27.4916471,-43.98838 a 82.339891,82.339891 0 0 0 27.0741371,91.99869 l 0.0079,0.006 a 82.339891,82.339891 0 0 0 66.171105,15.77737 L 260.81514,928.07333 310.98102,896.72084 133.86061,613.31699 A 82.339891,82.339891 0 0 0 118.6741,498.91715 82.339891,82.339891 0 0 0 77.80604,482.2011 Z"
       style="opacity:1;fill:url(#linearGradient4415);fill-opacity:1;fill-rule:nonzero;stroke:none;stroke-width:3.4000001;stroke-linecap:round;stroke-linejoin:round;stroke-miterlimit:4;stroke-dasharray:none;stroke-dashoffset:0;stroke-opacity:1"
       inkscape:connector-curvature="0"
       inkscape:export-xdpi="108.72752"
       inkscape:export-ydpi="108.72752" />
    <path
       style="opacity:1;fill:url(#linearGradient4193-9);fill-opacity:1;fill-rule:nonzero;stroke:none;stroke-width:23.95299911;stroke-linecap:round;stroke-linejoin:round;stroke-miterlimit:4;stroke-dasharray:none;stroke-dashoffset:0;stroke-opacity:0.78947371"
       d="m 350.77008,677.40022 c -46.87953,-20.09257 -87.75101,-21.57381 -164.6719,12.95869 -50.30433,22.58338 -111.7842,-6.82455 -166.925196,-6.78202 -6.75946,5.0354 0.987521,16.41047 0.267192,23.92499 15.911074,102.53493 30.209904,205.35111 49.252704,307.37122 6.80215,7.4186 18.11205,1.1165 26.85808,2.9985 71.1432,-1.1038 142.33329,1.994 213.44303,-1.2995 6.65741,-5.4024 5.42033,-16.474 7.01076,-24.49377 2.12627,-22.8972 7.79233,-45.57989 10.62195,-68.70762 12.36193,-78.83232 25.12807,-157.6261 36.62398,-236.60207 -0.78781,-6.04765 -3.30544,-2.38937 -12.4806,-9.36842 z"
       id="path4141-8"
       inkscape:connector-curvature="0"
       sodipodi:nodetypes="csccccccccc"
       inkscape:export-xdpi="108.72752"
       inkscape:export-ydpi="108.72752" />
    <path
       style="opacity:1;fill:url(#linearGradient4193);fill-opacity:1;fill-rule:nonzero;stroke:none;stroke-width:23.95299911;stroke-linecap:round;stroke-linejoin:round;stroke-miterlimit:4;stroke-dasharray:none;stroke-dashoffset:0;stroke-opacity:0.78947371"
       d="m -8.828852,619.41822 c -6.424745,5.16425 -2.758061,8.10865 -1.071133,18.71465 L 52.5582,1030.505 c 1.35555,8.5118 8.82091,14.7865 17.59378,14.7879 l 29.91638,0 179.49835,0 29.91639,0 c 8.77286,0 16.23823,-6.2761 17.59377,-14.7879 l 62.4582,-392.37213 c 1.68693,-10.606 -0.86288,-26.08908 -12.33659,-21.6648 -11.47369,4.42426 -58.26788,16.00834 -103.64,19.17603 -45.37212,3.16768 -123.63259,4.75748 -168.23292,1.47507 C 60.72525,633.83677 -8.828852,619.41822 -8.828852,619.41822 Z"
       id="path4141"
       inkscape:connector-curvature="0"
       sodipodi:nodetypes="ccccccccczzzc"
       inkscape:export-xdpi="108.72752"
       inkscape:export-ydpi="108.72752" />
    <path
       style="opacity:1;fill:url(#linearGradient4651);fill-opacity:1;fill-rule:nonzero;stroke:none;stroke-width:23.95299911;stroke-linecap:round;stroke-linejoin:round;stroke-miterlimit:4;stroke-dasharray:none;stroke-dashoffset:0;stroke-opacity:0.78947371"
       d="m 214.53516,733.91099 c 0.72636,3.71273 7.77916,40.73274 4.1582,61.08008 -0.0926,0.52041 -0.19768,1.02056 -0.30469,1.51757 -0.0517,0.2423 -0.10292,0.48622 -0.1582,0.72266 -0.09,0.38238 -0.18568,0.75277 -0.28516,1.11914 -0.0896,0.33174 -0.1837,0.65664 -0.28125,0.97461 -0.0935,0.30318 -0.19013,0.60053 -0.29101,0.89063 -0.11886,0.34315 -0.24541,0.67204 -0.375,0.99609 -0.11978,0.2986 -0.23616,0.60313 -0.36524,0.88477 -0.0324,0.0708 -0.0647,0.14122 -0.0977,0.21093 -0.20472,0.43183 -0.42029,0.84433 -0.64844,1.23242 -0.0415,0.0707 -0.0846,0.13782 -0.12695,0.20704 -0.24135,0.39427 -0.49203,0.77149 -0.75977,1.11523 -9.59631,12.32033 -27.28128,66.24476 -31.55273,79.5332 -0.61021,1.89835 -0.94727,2.9668 -0.94727,2.9668 0,0 5.32413,-24.77549 2.55469,-53.98047 -6e-5,-6.4e-4 6e-5,-0.001 0,-0.002 -0.88127,-9.29218 -2.58321,-19.03258 -5.53516,-28.56641 -1.8e-4,-5.9e-4 1.8e-4,-10e-4 0,-0.002 -1.26527,-4.08617 -2.76047,-8.13321 -4.51953,-12.0918 -0.50257,-1.13098 -0.96606,-2.22843 -1.41406,-3.31054 -0.15064,-0.36334 -0.29858,-0.724 -0.44336,-1.08204 -0.33886,-0.83953 -0.66176,-1.66433 -0.96875,-2.47461 -0.21226,-0.55857 -0.41354,-1.10528 -0.61133,-1.65039 -0.20055,-0.55474 -0.39816,-1.1076 -0.58398,-1.64843 -0.20704,-0.6 -0.40423,-1.1902 -0.59375,-1.77344 -0.0373,-0.11524 -0.0728,-0.22721 -0.10938,-0.3418 -3.76848,-11.74256 -4.04155,-20.10195 -2.86719,-25.94531 l -10.96093,0 0,13.00586 -146.765629,0 41.865234,263.00582 c 1.35555,8.5118 8.82088,14.7877 17.59375,14.7891 l 29.917965,0 179.49805,0 29.91602,0 c 8.77286,0 16.23821,-6.2773 17.59375,-14.7891 l 41.86523,-263.00582 -132.81836,0 0,-26.64258 -16.66797,0 0,-6.94531 -3.91015,0 z"
       id="path4297"
       inkscape:connector-curvature="0"
       inkscape:export-xdpi="108.72752"
       inkscape:export-ydpi="108.72752" />
    <path
       style="fill:#2e46b3;fill-opacity:1;fill-rule:evenodd;stroke:#000000;stroke-width:0.70997286;stroke-linecap:butt;stroke-linejoin:miter;stroke-miterlimit:4;stroke-dasharray:none;stroke-opacity:1"
       d="m 214.37579,733.06931 24.44856,56.64104 c 0,0 98.85519,-8.20367 134.15977,-23.29447 9.73335,-27.03983 10.03289,-45.05539 5.4759,-63.12049 -106.54578,48.06112 -164.08423,29.77392 -164.08423,29.77392 z"
       id="path4696"
       inkscape:connector-curvature="0"
       sodipodi:nodetypes="ccccc"
       inkscape:export-xdpi="108.72752"
       inkscape:export-ydpi="108.72752" />
    <path
       style="fill:none;fill-rule:evenodd;stroke:#000000;stroke-width:2.6;stroke-linecap:round;stroke-linejoin:miter;stroke-opacity:1;stroke-miterlimit:4;stroke-dasharray:none"
       d="m 175.49181,741.84845 c 0,0 -19.2551,8.64591 -0.49181,50.87085 18.76329,42.22494 7.5,94.64286 7.5,94.64286 0,0 21.53279,-68.41962 32.5,-82.5 10.96721,-14.08038 -0.62421,-71.79285 -0.62421,-71.79285"
       id="path4313"
       inkscape:connector-curvature="0"
       sodipodi:nodetypes="czczc"
       inkscape:export-xdpi="108.72752"
       inkscape:export-ydpi="108.72752" />
    <path
       style="fill:#2e46b3;fill-opacity:1;fill-rule:evenodd;stroke:#000000;stroke-width:0.7434808;stroke-linecap:butt;stroke-linejoin:miter;stroke-miterlimit:4;stroke-dasharray:none;stroke-opacity:1"
       d="m 175.49181,741.84845 -31.74965,56.61264 c 0,0 -101.394006,-17.29061 -140.1306063,-32.37326 C -7.0679965,739.0626 -7.3966665,721.05676 -2.3966765,703.0014 114.50661,751.03658 175.49181,741.84845 175.49181,741.84845 Z"
       id="path4696-7"
       inkscape:connector-curvature="0"
       sodipodi:nodetypes="ccccc"
       inkscape:export-xdpi="108.72752"
       inkscape:export-ydpi="108.72752" />
    <path
       style="fill:none;fill-rule:evenodd;stroke:#000000;stroke-width:3.4;stroke-linecap:butt;stroke-linejoin:miter;stroke-opacity:1;stroke-miterlimit:4;stroke-dasharray:none"
       d="m 185,877.36216 c 0,0 -8.37324,43.22458 -6.91878,63.42349 1.45446,20.19891 8.41175,35.08944 12.33253,52.48259 3.92078,17.39316 3.53554,51.01266 3.53554,51.01266"
       id="path4332"
       inkscape:connector-curvature="0"
       sodipodi:nodetypes="czzc"
       inkscape:export-xdpi="108.72752"
       inkscape:export-ydpi="108.72752" />
    <rect
       style="opacity:1;fill:#666666;fill-opacity:1;fill-rule:nonzero;stroke:none;stroke-width:3.4000001;stroke-linecap:round;stroke-linejoin:round;stroke-miterlimit:4;stroke-dasharray:none;stroke-dashoffset:0;stroke-opacity:1"
       id="rect4334"
       width="8.1916742"
       height="11.10275"
       x="304.18616"
       y="839.96667"
       transform="matrix(0.98973778,0.14289549,-0.14289549,0.98973778,0,0)"
       inkscape:export-xdpi="108.72752"
       inkscape:export-ydpi="108.72752" />
    <path
       style="fill:#999999;fill-rule:evenodd;stroke:none;stroke-width:1px;stroke-linecap:butt;stroke-linejoin:miter;stroke-opacity:1"
       d="m 182.27271,879.66332 c -0.83774,-0.11757 -1.68558,-0.22496 -2.54811,-0.32424 0,0 -6.20479,25.60254 -6.77659,33.5825 -0.33214,3.94123 1.71328,7.61842 5.2225,8.92721 0,0 6.96488,1.23314 8.64864,-6.58807 1.68377,-7.82123 2.89187,-34.13507 2.89187,-34.13507 -2.49854,-0.65452 -4.92526,-1.1085 -7.43831,-1.4623 z m -1.66009,2.13448 7.24878,1.03475 -1.01708,7.12504 -7.24878,-1.03474 z m -0.007,26.91757 c 2.09556,0.19127 3.82198,1.72561 4.25797,3.78422 0.54916,2.59268 -1.10762,5.13962 -3.70037,5.68847 -2.59217,0.54943 -5.139,-1.10635 -5.68874,-3.69845 l 2.8e-4,-0.002 c -0.54917,-2.59269 1.10762,-5.13961 3.70038,-5.68847 0.46994,-0.0994 0.95215,-0.12765 1.43049,-0.0838 z"
       id="path4336"
       inkscape:connector-curvature="0"
       sodipodi:nodetypes="scccscscccccccccccc"
       inkscape:export-xdpi="108.72752"
       inkscape:export-ydpi="108.72752" />
    <rect
       style="opacity:1;fill:#666666;fill-opacity:1;fill-rule:nonzero;stroke:none;stroke-width:3.4000001;stroke-linecap:round;stroke-linejoin:round;stroke-miterlimit:4;stroke-dasharray:none;stroke-dashoffset:0;stroke-opacity:1"
       id="rect4347"
       width="1.8309015"
       height="5.9977808"
       x="328.60855"
       y="834.55524"
       transform="matrix(0.98581116,0.16785817,-0.16785817,0.98581116,0,0)"
       inkscape:export-xdpi="108.72752"
       inkscape:export-ydpi="108.72752" />
    <g
       id="g4360"
       style="stroke:none">
      <rect
         y="399.80362"
         x="-358.60416"
         height="462.64987"
         width="74.751289"
         id="rect4349"
         style="opacity:1;fill:#999999;fill-opacity:1;fill-rule:nonzero;stroke:none;stroke-width:3.4000001;stroke-linecap:round;stroke-linejoin:round;stroke-miterlimit:4;stroke-dasharray:none;stroke-dashoffset:0;stroke-opacity:1" />
      <path
         id="path4351"
         transform="translate(0,552.36216)"
         d="M -256.10938 -290.24414 L -256.10938 -224.66602 L -321.22852 -187.07031 L -386.34766 -224.66602 L -386.34766 -290.21289 A 104.04572 104.04572 0 0 0 -418.94727 -173.5 L -418.94336 -173.48828 A 104.04572 104.04572 0 0 0 -285.49023 -111.51367 A 104.04572 104.04572 0 0 0 -223.51172 -244.96289 A 104.04572 104.04572 0 0 0 -256.10938 -290.24414 z "
         style="opacity:1;fill:#999999;fill-opacity:1;fill-rule:nonzero;stroke:none;stroke-width:3.4000001;stroke-linecap:round;stroke-linejoin:round;stroke-miterlimit:4;stroke-dasharray:none;stroke-dashoffset:0;stroke-opacity:1" />
    </g>
    <rect
       style="opacity:1;fill:#ffffff;fill-opacity:1;fill-rule:nonzero;stroke:none;stroke-width:3.4000001;stroke-linecap:round;stroke-linejoin:round;stroke-miterlimit:4;stroke-dasharray:none;stroke-dashoffset:0;stroke-opacity:1"
       id="rect4370"
       width="11.428572"
       height="422.85715"
       x="-305.71429"
       y="436.64786"
       ry="5.2857146" />
    <path
       style="opacity:1;fill:url(#linearGradient4411);fill-opacity:1;fill-rule:nonzero;stroke:none;stroke-width:3.4000001;stroke-linecap:round;stroke-linejoin:round;stroke-miterlimit:4;stroke-dasharray:none;stroke-dashoffset:0;stroke-opacity:1"
       d="M -504.68164 232.61328 L -504.68164 298.19141 L -569.80078 335.78711 L -634.91992 298.19141 L -634.91992 232.64453 A 104.04572 104.04572 0 0 0 -667.51953 349.35742 L -667.51562 349.36914 A 104.04572 104.04572 0 0 0 -607.17578 410.58984 L -607.17578 832.94922 L -532.42383 832.94922 L -532.42383 410.65039 A 104.04572 104.04572 0 0 0 -472.08398 277.89453 A 104.04572 104.04572 0 0 0 -504.68164 232.61328 z "
       transform="translate(0,552.36216)"
       id="rect4390" />
    <path
       style="fill:#000000;fill-opacity:0.50607288;fill-rule:evenodd;stroke:none;stroke-width:1px;stroke-linecap:butt;stroke-linejoin:miter;stroke-opacity:1"
       d="m 88.571424,668.79073 c -6.432679,-3.80809 -14.262456,-12.93012 -20.714282,-10 -6.451825,2.93011 -3.238167,7.46447 -11.428571,12.14286 -8.190403,4.67838 -20.485691,-13.1857 -27.142857,-3.57143 -6.657165,9.61427 13.344703,14.03944 15,22.14285 1.655297,8.10342 -1.638583,15.66512 2.142857,19.28572 3.781441,3.6206 9.565542,-5.95117 15,-5 5.434459,0.95116 2.511181,9.3981 13.571428,10.71429 11.060245,1.31618 26.495211,15.17274 36.428561,-0.71429 9.93336,-15.88704 -4.82714,-12.98526 -8.57142,-21.42857 -3.744276,-8.44331 4.19077,-2.97621 3.57143,-10.71429 -0.61933,-7.73809 -11.424456,-9.04904 -17.857146,-12.85714 z"
       id="path4417"
       inkscape:connector-curvature="0"
       sodipodi:nodetypes="zzzzzzzzzzzz"
       inkscape:export-xdpi="108.72752"
       inkscape:export-ydpi="108.72752" />
    <flowRoot
       xml:space="preserve"
       id="flowRoot4421"
       style="font-style:normal;font-weight:normal;font-size:10px;line-height:125%;font-family:sans-serif;letter-spacing:0px;word-spacing:0px;fill:#000000;fill-opacity:1;stroke:none;stroke-width:1px;stroke-linecap:butt;stroke-linejoin:miter;stroke-opacity:1;"
       transform="translate(0,552.36216)"><flowRegion
         id="flowRegion4423"><rect
           id="rect4425"
           width="55.558388"
           height="52.527946"
           x="-78.286819"
           y="273.72583"
           style="font-size:10px;" /></flowRegion><flowPara
         id="flowPara4427" /></flowRoot>    <flowRoot
       xml:space="preserve"
       id="flowRoot4429"
       style="fill:black;stroke:none;stroke-opacity:1;stroke-width:1px;stroke-linejoin:miter;stroke-linecap:butt;fill-opacity:1;font-family:sans-serif;font-style:normal;font-weight:normal;font-size:10px;line-height:125%;letter-spacing:0px;word-spacing:0px;"><flowRegion
         id="flowRegion4431"><rect
           id="rect4433"
           width="39.39595"
           height="44.95179"
           x="-69.19545"
           y="274.73599"
           style="font-size:10px;" /></flowRegion><flowPara
         id="flowPara4435"></flowPara></flowRoot>    <flowRoot
       xml:space="preserve"
       id="flowRoot4437"
       style="font-style:normal;font-weight:normal;font-size:40px;line-height:125%;font-family:sans-serif;letter-spacing:0px;word-spacing:0px;fill:#000000;fill-opacity:1;stroke:none;stroke-width:1px;stroke-linecap:butt;stroke-linejoin:miter;stroke-opacity:1"
       transform="translate(0,552.36216)"><flowRegion
         id="flowRegion4439"><rect
           id="rect4441"
           width="94.954338"
           height="65.154839"
           x="-82.832512"
           y="292.91873" /></flowRegion><flowPara
         id="flowPara4443">Smaesmpwcm</flowPara></flowRoot>    <path
       style="opacity:1;fill:url(#linearGradient4609);fill-opacity:1;fill-rule:nonzero;stroke:none;stroke-width:3.4000001;stroke-linecap:round;stroke-linejoin:round;stroke-miterlimit:4;stroke-dasharray:none;stroke-dashoffset:0;stroke-opacity:1"
       d="m 300.05903,952.08112 c 10.75018,0.01 21.42893,1.6788 31.54763,4.9527 26.78256,8.7008 46.85975,43.44638 55.3881,70.82458 5.83212,5.5867 8.49221,7.0806 18.60219,10.2211 7.67173,2.3831 12.10764,5.7063 10.9776,10.9819 -9.09692,0.212 -21.066,-0.5122 -25.20748,-0.4779 l -184.41073,0 c -0.0362,-9.536 2.93566,-34.0645 6.60073,-43.0321 12.70136,-30.73218 44.95636,-51.75348 81.89226,-53.37108 1.53724,-0.067 3.07399,-0.1001 4.60972,-0.099 z"
       id="path4593"
       inkscape:connector-curvature="0"
       sodipodi:nodetypes="cccsccccccc"
       inkscape:export-xdpi="108.72752"
       inkscape:export-ydpi="108.72752" />
    <path
       style="fill:url(#linearGradient4627);fill-opacity:1;fill-rule:evenodd;stroke:none;stroke-width:1px;stroke-linecap:butt;stroke-linejoin:miter;stroke-opacity:1"
       d="m 342.28571,967.50502 c -1.23924,2.87232 -26.8264,-10.89153 -47.5,-8.92857 -20.6736,1.96296 -45.53172,18.17536 -48.92857,16.78571 -3.39685,-1.38965 -7.69993,-5.7451 -5.89811,-10.0359 1.80182,-4.2908 24.27168,-16.31078 48.36221,-18.98984 24.09053,-2.67906 52.68126,6.61454 55.33177,9.79079 2.65051,3.17625 -0.12806,8.50549 -1.3673,11.37781 z"
       id="path4611"
       inkscape:connector-curvature="0"
       sodipodi:nodetypes="zzzzzzz"
       inkscape:export-xdpi="108.72752"
       inkscape:export-ydpi="108.72752" />
    <path
       style="fill:url(#linearGradient4643);fill-opacity:1;fill-rule:evenodd;stroke:none;stroke-width:1px;stroke-linecap:butt;stroke-linejoin:miter;stroke-opacity:1"
       d="m 342.96709,991.16671 c -2.49695,-3.25626 -25.06675,-2.34726 -40.4061,-2.52538 -15.33935,-0.17812 -48.75559,-0.91355 -51.51778,2.0203 -2.76219,2.93385 -2.70235,5.6776 0.50508,9.09138 3.20743,3.41379 33.03749,-0.23933 48.48732,0 15.44984,0.23933 42.24714,1.77059 43.94164,1.01019 0,0 1.48679,-6.34023 -1.01016,-9.59649 z"
       id="path4635"
       inkscape:connector-curvature="0"
       sodipodi:nodetypes="zzzzzsz"
       inkscape:export-xdpi="108.72752"
       inkscape:export-ydpi="108.72752" />
  </g>
</svg>
