\relax 
\providecommand\hyper@newdestlabel[2]{}
\providecommand\HyperFirstAtBeginDocument{\AtBeginDocument}
\HyperFirstAtBeginDocument{\ifx\hyper@anchor\@undefined
\global\let\oldcontentsline\contentsline
\gdef\contentsline#1#2#3#4{\oldcontentsline{#1}{#2}{#3}}
\global\let\oldnewlabel\newlabel
\gdef\newlabel#1#2{\newlabelxx{#1}#2}
\gdef\newlabelxx#1#2#3#4#5#6{\oldnewlabel{#1}{{#2}{#3}}}
\AtEndDocument{\ifx\hyper@anchor\@undefined
\let\contentsline\oldcontentsline
\let\newlabel\oldnewlabel
\fi}
\fi}
\global\let\hyper@last\relax 
\gdef\HyperFirstAtBeginDocument#1{#1}
\providecommand\HyField@AuxAddToFields[1]{}
\providecommand\HyField@AuxAddToCoFields[2]{}
\select@language{italian}
\@writefile{toc}{\select@language{italian}}
\@writefile{lof}{\select@language{italian}}
\@writefile{lot}{\select@language{italian}}
\select@language{italian}
\@writefile{toc}{\select@language{italian}}
\@writefile{lof}{\select@language{italian}}
\@writefile{lot}{\select@language{italian}}
\@writefile{toc}{\contentsline {chapter}{Introduzione}{iii}{chapter*.2}}
\@writefile{lof}{\addvspace {10\p@ }}
\@writefile{lot}{\addvspace {10\p@ }}
\@writefile{toc}{\contentsline {chapter}{Ringraziamenti}{v}{chapter*.3}}
\@writefile{lof}{\addvspace {10\p@ }}
\@writefile{lot}{\addvspace {10\p@ }}
\@writefile{toc}{\contentsline {chapter}{\numberline {1}Analisi del problema e specifica dei requisiti}{1}{chapter.1}}
\@writefile{lof}{\addvspace {10\p@ }}
\@writefile{lot}{\addvspace {10\p@ }}
\@writefile{toc}{\contentsline {section}{\numberline {1.1}Analisi del problema}{1}{section.1.1}}
\@writefile{toc}{\contentsline {subsection}{\numberline {1.1.1}Classificazione}{1}{subsection.1.1.1}}
\@writefile{toc}{\contentsline {subsection}{\numberline {1.1.2}Problema di controllo}{2}{subsection.1.1.2}}
\@writefile{lof}{\contentsline {figure}{\numberline {1.1}{\ignorespaces Anello di retroazione semplificato}}{2}{figure.1.1}}
\newlabel{fig:ctrl_simple}{{1.1}{2}{Anello di retroazione semplificato}{figure.1.1}{}}
\@writefile{lof}{\contentsline {figure}{\numberline {1.2}{\ignorespaces Anello di retroazione completo}}{3}{figure.1.2}}
\newlabel{fig:ctrl_complex}{{1.2}{3}{Anello di retroazione completo}{figure.1.2}{}}
\@writefile{lof}{\contentsline {figure}{\numberline {1.3}{\ignorespaces Diagramma di bode di G(s) nel caso $k_1=k_2=1$}}{4}{figure.1.3}}
\newlabel{fig:bode_diag}{{1.3}{4}{Diagramma di bode di G(s) nel caso $k_1=k_2=1$}{figure.1.3}{}}
\@writefile{toc}{\contentsline {subsection}{\numberline {1.1.3}Valutazione quantitativa dei requisiti}{5}{subsection.1.1.3}}
\@writefile{toc}{\contentsline {subsubsection}{Trasportabilit\IeC {\`a}}{5}{section*.4}}
\@writefile{toc}{\contentsline {subsubsection}{Facilit\IeC {\`a} d'uso}{6}{section*.5}}
\@writefile{toc}{\contentsline {subsubsection}{Precisione}{6}{section*.6}}
\@writefile{toc}{\contentsline {subsubsection}{Velocit\IeC {\`a}}{7}{section*.7}}
\@writefile{toc}{\contentsline {subsubsection}{Abbattimento dei costi}{7}{section*.8}}
\@writefile{toc}{\contentsline {subsubsection}{Numero di sostanze miscelabili}{8}{section*.9}}
\@writefile{toc}{\contentsline {subsubsection}{Sicurezza}{8}{section*.10}}
\@writefile{toc}{\contentsline {subsubsection}{Adattamento alle richieste del cliente}{8}{section*.11}}
\@writefile{toc}{\contentsline {section}{\numberline {1.2}Specifica dei requisiti}{9}{section.1.2}}
\@writefile{toc}{\contentsline {subsubsection}{Specifiche quantitative}{9}{section*.12}}
\@writefile{toc}{\contentsline {subsubsection}{Specifiche qualitative}{10}{section*.13}}
\@writefile{toc}{\contentsline {chapter}{\numberline {2}Progettazione e realizzazione fisica}{11}{chapter.2}}
\@writefile{lof}{\addvspace {10\p@ }}
\@writefile{lot}{\addvspace {10\p@ }}
\@writefile{toc}{\contentsline {section}{\numberline {2.1}Le possibili alternative}{11}{section.2.1}}
\@writefile{toc}{\contentsline {subsection}{\numberline {2.1.1}Struttura fisica del sistema}{11}{subsection.2.1.1}}
\@writefile{toc}{\contentsline {subsection}{\numberline {2.1.2}Sensori}{12}{subsection.2.1.2}}
\@writefile{lof}{\contentsline {figure}{\numberline {2.1}{\ignorespaces Un comune sensore di flusso}}{12}{figure.2.1}}
\newlabel{fig:flow_meter}{{2.1}{12}{Un comune sensore di flusso}{figure.2.1}{}}
\@writefile{lof}{\contentsline {figure}{\numberline {2.2}{\ignorespaces Un comune sensore di peso}}{13}{figure.2.2}}
\newlabel{fig:strain_gauge}{{2.2}{13}{Un comune sensore di peso}{figure.2.2}{}}
\@writefile{toc}{\contentsline {subsection}{\numberline {2.1.3}Attuatori}{14}{subsection.2.1.3}}
\@writefile{lof}{\contentsline {figure}{\numberline {2.3}{\ignorespaces Una comune elettrovalvola}}{15}{figure.2.3}}
\newlabel{fig:solenoid_valve}{{2.3}{15}{Una comune elettrovalvola}{figure.2.3}{}}
\citation{pwm}
\@writefile{lof}{\contentsline {figure}{\numberline {2.4}{\ignorespaces Una comune pompetta per aria}}{16}{figure.2.4}}
\newlabel{fig:micro_air_pump}{{2.4}{16}{Una comune pompetta per aria}{figure.2.4}{}}
\@writefile{toc}{\contentsline {subsection}{\numberline {2.1.4}Dispositivi di conversione analogico digitale}{16}{subsection.2.1.4}}
\@writefile{toc}{\contentsline {subsection}{\numberline {2.1.5}Controllori}{16}{subsection.2.1.5}}
\@writefile{lof}{\contentsline {figure}{\numberline {2.5}{\ignorespaces Una comune pompetta auto adescante per liquidi alimentari}}{17}{figure.2.5}}
\newlabel{fig:water_pump}{{2.5}{17}{Una comune pompetta auto adescante per liquidi alimentari}{figure.2.5}{}}
\@writefile{lof}{\contentsline {figure}{\numberline {2.6}{\ignorespaces Un Arduino{} Uno}}{17}{figure.2.6}}
\newlabel{fig:uno}{{2.6}{17}{Un \ardu {} Uno}{figure.2.6}{}}
\@writefile{toc}{\contentsline {subsubsection}{Arduino}{18}{section*.14}}
\@writefile{lof}{\contentsline {figure}{\numberline {2.7}{\ignorespaces Un Raspberry Pi{} Zero W{}}}{18}{figure.2.7}}
\newlabel{fig:rpi0}{{2.7}{18}{Un \raszero {}}{figure.2.7}{}}
\@writefile{toc}{\contentsline {subsubsection}{Raspberry Pi}{18}{section*.15}}
\@writefile{lof}{\contentsline {figure}{\numberline {2.8}{\ignorespaces Un esempio di Microchip PIC}}{19}{figure.2.8}}
\newlabel{fig:pic}{{2.8}{19}{Un esempio di Microchip PIC}{figure.2.8}{}}
\@writefile{toc}{\contentsline {subsubsection}{Microchip PIC}{19}{section*.16}}
\@writefile{toc}{\contentsline {subsection}{\numberline {2.1.6}Software}{20}{subsection.2.1.6}}
\@writefile{toc}{\contentsline {section}{\numberline {2.2}L'architettura definitiva}{20}{section.2.2}}
\@writefile{toc}{\contentsline {subsection}{\numberline {2.2.1}Sensori}{20}{subsection.2.2.1}}
\citation{hx711}
\@writefile{lof}{\contentsline {figure}{\numberline {2.9}{\ignorespaces Il modulo di conversione A/D basato sul chip HX711}}{21}{figure.2.9}}
\newlabel{fig:hx711}{{2.9}{21}{Il modulo di conversione A/D basato sul chip HX711}{figure.2.9}{}}
\@writefile{toc}{\contentsline {subsection}{\numberline {2.2.2}Attuatori}{21}{subsection.2.2.2}}
\@writefile{toc}{\contentsline {subsection}{\numberline {2.2.3}Controllori}{23}{subsection.2.2.3}}
\@writefile{toc}{\contentsline {subsection}{\numberline {2.2.4}Struttura fisica del sistema}{25}{subsection.2.2.4}}
\@writefile{toc}{\contentsline {subsubsection}{Sistema di aggancio del sensore di peso alla superficie di appoggio}{26}{section*.17}}
\@writefile{lof}{\contentsline {figure}{\numberline {2.10}{\ignorespaces Modulo di aggancio tra piatto e sensore}}{26}{figure.2.10}}
\newlabel{fig:plate_sensor_hook}{{2.10}{26}{Modulo di aggancio tra piatto e sensore}{figure.2.10}{}}
\@writefile{toc}{\contentsline {subsubsection}{Superficie di appoggio}{26}{section*.18}}
\@writefile{lof}{\contentsline {figure}{\numberline {2.11}{\ignorespaces Superficie di appoggio del contenitore da riempire}}{27}{figure.2.11}}
\newlabel{fig:plate}{{2.11}{27}{Superficie di appoggio del contenitore da riempire}{figure.2.11}{}}
\@writefile{toc}{\contentsline {subsubsection}{Corpo inferiore}{27}{section*.19}}
\@writefile{lof}{\contentsline {figure}{\numberline {2.12}{\ignorespaces Corpo inferiore del modulo B}}{27}{figure.2.12}}
\newlabel{fig:lower_body}{{2.12}{27}{Corpo inferiore del modulo B}{figure.2.12}{}}
\@writefile{toc}{\contentsline {subsubsection}{Ugello di erogazione}{27}{section*.20}}
\@writefile{lof}{\contentsline {figure}{\numberline {2.13}{\ignorespaces Condotto contenente i tubi di trasporto delle bevande}}{28}{figure.2.13}}
\newlabel{fig:pipe}{{2.13}{28}{Condotto contenente i tubi di trasporto delle bevande}{figure.2.13}{}}
\@writefile{toc}{\contentsline {subsubsection}{Matrice di aggancio dei tubi di trasporto dei liquidi}{28}{section*.21}}
\@writefile{lof}{\contentsline {figure}{\numberline {2.14}{\ignorespaces Matrice di aggancio dei tubi di trasporto nella versione di test, ossia a tre fori}}{28}{figure.2.14}}
\newlabel{fig:matrix}{{2.14}{28}{Matrice di aggancio dei tubi di trasporto nella versione di test, ossia a tre fori}{figure.2.14}{}}
\@writefile{toc}{\contentsline {section}{\numberline {2.3}Alimentazione e circuiti di potenza}{30}{section.2.3}}
\@writefile{toc}{\contentsline {section}{\numberline {2.4}Schema definitivo e valutazione di fattibilit\IeC {\`a}}{30}{section.2.4}}
\@writefile{lof}{\contentsline {figure}{\numberline {2.15}{\ignorespaces Diagramma rappresentente l'interconnessione tra tutti i componenti del progetto}}{31}{figure.2.15}}
\newlabel{fig:complete_diagram}{{2.15}{31}{Diagramma rappresentente l'interconnessione tra tutti i componenti del progetto}{figure.2.15}{}}
\newlabel{sec:simulink}{{2.4}{31}{Schema definitivo e valutazione di fattibilità}{figure.2.15}{}}
\@writefile{lof}{\contentsline {figure}{\numberline {2.16}{\ignorespaces Schema simulink}}{32}{figure.2.16}}
\newlabel{fig:simulink_scheme}{{2.16}{32}{Schema simulink}{figure.2.16}{}}
\@writefile{lof}{\contentsline {figure}{\numberline {2.17}{\ignorespaces Grafico della variabile di controllo. In rosso non limitata, mentre in blu limitata.}}{33}{figure.2.17}}
\newlabel{fig:control_variable}{{2.17}{33}{Grafico della variabile di controllo. In rosso non limitata, mentre in blu limitata}{figure.2.17}{}}
\@writefile{lof}{\contentsline {figure}{\numberline {2.18}{\ignorespaces Liquido presente nel bicchiere in funzione del tempo. In rosso espresso in litri, mentre in blu in Kg.}}{34}{figure.2.18}}
\newlabel{fig:liquid_in_the_glass}{{2.18}{34}{Liquido presente nel bicchiere in funzione del tempo. In rosso espresso in litri, mentre in blu in Kg}{figure.2.18}{}}
\@writefile{lof}{\contentsline {figure}{\numberline {2.19}{\ignorespaces Flusso di liquido in uscita dalle pompette, in l/s.}}{34}{figure.2.19}}
\newlabel{fig:liquid_flow}{{2.19}{34}{Flusso di liquido in uscita dalle pompette, in l/s}{figure.2.19}{}}
\citation{hx711}
\@writefile{toc}{\contentsline {chapter}{\numberline {3}Architettura software}{35}{chapter.3}}
\@writefile{lof}{\addvspace {10\p@ }}
\@writefile{lot}{\addvspace {10\p@ }}
\newlabel{cap:soft}{{3}{35}{Architettura software}{chapter.3}{}}
\@writefile{toc}{\contentsline {section}{\numberline {3.1}Suddivisione del software}{35}{section.3.1}}
\@writefile{toc}{\contentsline {subsubsection}{Arduino}{35}{section*.22}}
\@writefile{toc}{\contentsline {subsubsection}{Raspberry Pi}{36}{section*.23}}
\@writefile{toc}{\contentsline {subsubsection}{Smartphone}{37}{section*.24}}
\@writefile{toc}{\contentsline {section}{\numberline {3.2}Software lato Raspberry Pi}{37}{section.3.2}}
\@writefile{lof}{\contentsline {figure}{\numberline {3.1}{\ignorespaces Moduli componenti l'applicativo software lato Raspberry Pi}}{38}{figure.3.1}}
\newlabel{fig:modules}{{3.1}{38}{Moduli componenti l'applicativo software lato \raspi }{figure.3.1}{}}
\@writefile{lof}{\contentsline {figure}{\numberline {3.2}{\ignorespaces Schema UML semplificato del modulo Recipes}}{38}{figure.3.2}}
\newlabel{fig:recipes}{{3.2}{38}{Schema UML semplificato del modulo Recipes}{figure.3.2}{}}
\@writefile{toc}{\contentsline {subsection}{\numberline {3.2.1}Recipes}{38}{subsection.3.2.1}}
\citation{patterns_gof}
\@writefile{toc}{\contentsline {subsection}{\numberline {3.2.2}Components}{39}{subsection.3.2.2}}
\newlabel{sec:components}{{3.2.2}{39}{Components}{subsection.3.2.2}{}}
\newlabel{sec:components}{{3.2.2}{39}{Components}{subsection.3.2.2}{}}
\@writefile{lof}{\contentsline {figure}{\numberline {3.3}{\ignorespaces Scema UML semplificato del modulo Components}}{40}{figure.3.3}}
\newlabel{fig:components}{{3.3}{40}{Scema UML semplificato del modulo Components}{figure.3.3}{}}
\citation{patterns_gof}
\@writefile{toc}{\contentsline {subsection}{\numberline {3.2.3}Executors}{41}{subsection.3.2.3}}
\newlabel{sec:exec}{{3.2.3}{41}{Executors}{subsection.3.2.3}{}}
\citation{patterns_gof}
\citation{patterns_gof}
\@writefile{lof}{\contentsline {figure}{\numberline {3.4}{\ignorespaces Scema UML semplificato del modulo Executors}}{42}{figure.3.4}}
\newlabel{fig:executors}{{3.4}{42}{Scema UML semplificato del modulo Executors}{figure.3.4}{}}
\@writefile{toc}{\contentsline {subsection}{\numberline {3.2.4}Hardware}{43}{subsection.3.2.4}}
\newlabel{sec:hardware}{{3.2.4}{43}{Hardware}{subsection.3.2.4}{}}
\@writefile{lof}{\contentsline {figure}{\numberline {3.5}{\ignorespaces Scema UML semplificato del modulo Hardware}}{44}{figure.3.5}}
\newlabel{fig:hardware}{{3.5}{44}{Scema UML semplificato del modulo Hardware}{figure.3.5}{}}
\@writefile{toc}{\contentsline {subsection}{\numberline {3.2.5}Communication}{44}{subsection.3.2.5}}
\citation{patterns_gof}
\@writefile{toc}{\contentsline {subsection}{\numberline {3.2.6}Json Translators}{46}{subsection.3.2.6}}
\@writefile{lof}{\contentsline {figure}{\numberline {3.6}{\ignorespaces Scema UML semplificato del modulo Communication}}{47}{figure.3.6}}
\newlabel{fig:communication}{{3.6}{47}{Scema UML semplificato del modulo Communication}{figure.3.6}{}}
\citation{patterns_gof}
\@writefile{toc}{\contentsline {subsection}{\numberline {3.2.7}Main System Architecture}{48}{subsection.3.2.7}}
\citation{tdd}
\@writefile{toc}{\contentsline {subsection}{\numberline {3.2.8}Testing}{49}{subsection.3.2.8}}
\newlabel{sec:simulation}{{3.2.8}{49}{Testing}{subsection.3.2.8}{}}
\@writefile{toc}{\contentsline {section}{\numberline {3.3}Lato smartphone}{50}{section.3.3}}
\@writefile{lof}{\contentsline {figure}{\numberline {3.7}{\ignorespaces Icona dell'app}}{50}{figure.3.7}}
\newlabel{fig:smartail}{{3.7}{50}{Icona dell'app}{figure.3.7}{}}
\citation{patterns_mvc}
\@writefile{lof}{\contentsline {figure}{\numberline {3.8}{\ignorespaces Alcuni screenshot dell'applicazione Android}}{52}{figure.3.8}}
\newlabel{fig:screens}{{3.8}{52}{Alcuni screenshot dell'applicazione Android}{figure.3.8}{}}
\@writefile{toc}{\contentsline {chapter}{\numberline {4}Risultati}{54}{chapter.4}}
\@writefile{lof}{\addvspace {10\p@ }}
\@writefile{lot}{\addvspace {10\p@ }}
\@writefile{toc}{\contentsline {section}{\numberline {4.1}Misurazioni}{54}{section.4.1}}
\@writefile{toc}{\contentsline {section}{\numberline {4.2}Analisi dei costi}{56}{section.4.2}}
\@writefile{toc}{\contentsline {section}{\numberline {4.3}Grado di soddisfazione delle specifiche qualitative}{57}{section.4.3}}
\@writefile{toc}{\contentsline {section}{\numberline {4.4}Grafici}{57}{section.4.4}}
\newlabel{sec:graphs}{{4.4}{57}{Grafici}{section.4.4}{}}
\@writefile{lof}{\contentsline {figure}{\numberline {4.1}{\ignorespaces Grafico risultante dalla \textbf  {\textit  {simulazione}} interna al sistema software}}{58}{figure.4.1}}
\newlabel{fig:single_component_simulated_0_8_ll}{{4.1}{58}{Grafico risultante dalla \emph {simulazione} interna al sistema software}{figure.4.1}{}}
\@writefile{lof}{\contentsline {figure}{\numberline {4.2}{\ignorespaces Grafico dell'erogazione \textbf  {\textit  {reale}} di un singolo liquido}}{59}{figure.4.2}}
\newlabel{fig:single_component_real_0_8_ll}{{4.2}{59}{Grafico dell'erogazione \emph {reale} di un singolo liquido}{figure.4.2}{}}
\@writefile{toc}{\contentsline {chapter}{Conclusioni}{60}{chapter*.25}}
\@writefile{lof}{\addvspace {10\p@ }}
\@writefile{lot}{\addvspace {10\p@ }}
\bibcite{patterns_gof}{1}
\bibcite{patterns_mvc}{2}
\bibcite{tdd}{3}
\bibcite{hx711}{4}
\bibcite{pwm}{5}
